School_diversity_Tidy_Tues
…
states <- map_data("state")

school_diversity  %>%
  group_by(d_Locale_Txt, SCHOOL_YEAR) %>%
    summarise(total_population = sum(Total))

## # A tibble: 25 x 3
## # Groups:   d_Locale_Txt [13]
##    d_Locale_Txt  SCHOOL_YEAR total_population
##    <chr>         <chr>                  <dbl>
##  1 city-large    1994-1995            7514551
##  2 city-large    2016-2017            7186937
##  3 city-midsize  1994-1995            3146912
##  4 city-midsize  2016-2017            3375529
##  5 city-small    1994-1995            3109865
##  6 city-small    2016-2017            3325243
##  7 rural-distant 1994-1995            2682580
##  8 rural-distant 2016-2017            2493453
##  9 rural-fringe  1994-1995            3112897
## 10 rural-fringe  2016-2017            3554254
## #  with 15 more rows
…
